adm0_name,adm1_name,adm2_name,population,phase_class,phase1,phase2,phase3,phase4,phase5,phase35
Nigeria,Adamawa,Madagali,184502,4,20295.22,36900.4,83025.9,40590.44,3690.04,127306.38
Nigeria,Adamawa,Michika,212521,3,87133.61,59505.88,42504.2,23377.31,0,65881.51
Nigeria,Adamawa,Mubi North,206732,2,150914.36,37211.76,16538.56,2067.32,0,18605.88
Nigeria,Adamawa,Mubi South,176442,3,81163.32,58225.86,33523.98,3528.84,0,37052.82
Nigeria,Adamawa,Maiha,152191,3,31960.11,66964.04,48701.12,4565.73,0,53266.85
Nigeria,Adamawa,Gombi,200379,3,70132.65,80151.6,40075.8,10018.95,0,50094.75
Nigeria,Adamawa,Hong,231438,3,64802.64,127290.9,39344.46,0,0,39344.46
Nigeria,Adamawa,Song,263693,3,158215.8,73834.04,29006.23,2636.93,0,31643.16
Nigeria,Adamawa,Girei,177890,1,149427.6,24904.6,3557.8,0,0,3557.8
Nigeria,Adamawa,Yola North,271288,3,94950.8,122079.6,54257.6,0,0,54257.6
Nigeria,Adamawa,Yola South,266307,2,95870.52,141142.71,23967.63,0,0,23967.63
Nigeria,Adamawa,Fufore,283659,2,181541.76,85097.7,17019.54,0,0,17019.54
Nigeria,Adamawa,Guyuk,243287,2,92449.06,94881.93,53523.14,2432.87,0,55956.01
Nigeria,Adamawa,Shelleng,203991,1,183591.9,16319.28,4079.82,0,0,4079.82
Nigeria,Adamawa,Ganye,224542,1,195351.54,17963.36,11227.1,0,0,11227.1
Nigeria,Adamawa,Demsa,246662,1,204729.46,39465.92,2466.62,0,0,2466.62
Nigeria,Adamawa,Lamurde,154364,1,138927.6,10805.48,4630.92,0,0,4630.92
Nigeria,Adamawa,Mayo Belwa,209547,3,81723.33,85914.27,39813.93,2095.47,0,41909.4
Nigeria,Adamawa,Toungo,71213,1,61243.18,7833.43,2136.39,0,0,2136.39
Nigeria,Adamawa,Numan,124149,2,93111.75,18622.35,12414.9,0,0,12414.9
Nigeria,Adamawa,Jada,230544,2,138326.4,78384.96,13832.64,0,0,13832.64
Nigeria,Bauchi,Central,2041836,2,1327193.4,653387.52,61255.08,0,0,61255.08
Nigeria,Bauchi,Northern,2129893,2,1341832.59,724163.62,63896.79,0,0,63896.79
Nigeria,Bauchi,Southern,2421387,1,1985537.34,411635.79,24213.87,0,0,24213.87
Nigeria,Benue,Central,1484603,1,1276758.58,163306.33,44538.09,0,0,44538.09
Nigeria,Benue,North,1972508,1,1676631.8,236700.96,59175.24,0,0,59175.24
Nigeria,Benue,South,1790286,2,1414325.94,304348.62,71611.44,0,0,71611.44
Nigeria,Borno,Bama,391294.612631015,4,78258.922526203,109562.491536684,117388.383789305,82171.8686525132,3912.94612631015,203473.198568128
Nigeria,Borno,Mmc,782271.467198239,3,195567.86679956,273795.013519384,258149.584175419,54759.0027038767,0,312908.586879296
Nigeria,Borno,Jere,302921,3,69671.83,96934.72,112080.77,24233.68,0,136314.45
Nigeria,Borno,Mafa,150079,4,30015.8,45023.7,45023.7,28515.01,1500.79,75039.5
Nigeria,Borno,Kalabalge,88128,4,18506.88,26438.4,24675.84,17625.6,881.28,43182.72
Nigeria,Borno,Dikwa,152169,4,28912.11,42607.32,47172.39,31955.49,1521.69,80649.57
Nigeria,Borno,Konduga,227905,4,50139.1,61534.35,68371.5,45581,2279.05,116231.55
Nigeria,Borno,Ngala,342592,4,82222.08,89073.92,99351.68,68518.4,3425.92,171296
Nigeria,Borno,Askira /Uba,207606,4,49825.44,51901.5,60205.74,43597.26,2076.06,105879.06
Nigeria,Borno,Biu,254610,3,71290.8,94205.7,63652.5,25461,0,89113.5
Nigeria,Borno,Damboa,337814,3,91209.78,135125.6,84453.5,27025.12,0,111478.62
Nigeria,Borno,Chibok,960974,4,192194.8,240243.5,307511.68,211414.28,9609.74,528535.7
Nigeria,Borno,Gwoza,400644,4,76122.36,92148.12,140225.4,88141.68,4006.44,232373.52
Nigeria,Borno,Bayo,414552,3,124365.6,140947.68,116074.56,33164.16,0,149238.72
Nigeria,Borno,Shani,146291,3,45350.21,52664.76,38035.66,10240.37,0,48276.03
Nigeria,Borno,Hawul,174901,3,57717.33,62964.36,43725.25,10494.06,0,54219.31
Nigeria,Borno,Kwaya Kusar,821282,3,262810.24,287448.7,213533.32,57489.74,0,271023.06
Nigeria,Borno,Abadam,144958,4,26092.44,31890.76,52184.88,33340.34,1449.58,86974.8
Nigeria,Borno,Gubio,219155,3,67938.05,81087.35,59171.85,10957.75,0,70129.6
Nigeria,Borno,Guzamala,139055,4,27811,33373.2,44497.6,32038.272,834.33,77370.202
Nigeria,Borno,Kaga,130366,3,27376.86,45628.1,44324.44,13036.6,0,57361.04
Nigeria,Borno,Kukawa,294561,4,58912.2,67749.03,100150.74,64803.42,2945.61,167899.77
Nigeria,Borno,Magumeri,203181,4,40636.2,44699.82,71113.35,44699.82,2031.81,117844.98
Nigeria,Borno,Monguno,159111,4,35004.42,35004.42,54097.74,33413.31,1591.11,89102.16
Nigeria,Borno,Nganzai,143524,4,28704.8,31575.28,50233.4,31575.28,1435.24,83243.92
Nigeria,Borno,Marte,187465,4,33743.7,41242.3,67487.4,43116.95,1874.65,112479
Nigeria,Borno,Mobbar,168961,4,33792.2,37171.42,59136.35,37171.42,1689.61,97997.38
Nigeria,Gombe,Gombe Central,812691,1,731421.9,81269.1,0,0,0,0
Nigeria,Gombe,Gombe North,1431663,2,1059430.62,343599.12,28633.26,0,0,28633.26
Nigeria,Gombe,Gombe South,983117,2,757000.09,206454.57,19662.34,0,0,19662.34
Nigeria,Jigawa,North East,1433096,2,1232462.56,171971.52,28661.92,0,0,28661.92
Nigeria,Jigawa,North South,1942020,2,1631296.8,271882.8,38840.4,0,0,38840.4
Nigeria,Jigawa,North West,2407484,2,1950062.04,409272.28,48149.68,0,0,48149.68
Nigeria,Kaduna,North,2858546,1,2372593.18,371610.98,114341.84,0,0,114341.84
Nigeria,Kaduna,Central,3051225,1,2471492.25,488196,91536.75,0,0,91536.75
Nigeria,Kaduna,South,2353803,2,1223977.56,823831.05,305994.39,0,0,305994.39
Nigeria,Kano,Zone 1 (Central),6468619,2,4657405.68,1423096.18,452803.33,0,0,452803.33
Nigeria,Kano,Zone 2 (North),3812368,2,2630533.92,876844.64,228742.08,0,0,228742.08
Nigeria,Kano,Zone 3 (South),4547149,1,3774133.67,591129.37,181885.96,0,0,181885.96
Nigeria,Katsina,Sahel,2548596,2,1478185.68,764578.8,305831.52,0,0,305831.52
Nigeria,Katsina,Sudan,2534183,2,1672560.78,633545.75,228076.47,0,0,228076.47
Nigeria,Katsina,Guinea,2475221,2,1806911.33,544548.62,123761.05,0,0,123761.05
Nigeria,Kebbi,Central,1736972,1,1406947.32,225806.36,104218.32,0,0,104218.32
Nigeria,Kebbi,North,1477424,1,1226261.92,177290.88,73871.2,0,0,73871.2
Nigeria,Kebbi,South,1415484,2,934219.44,339716.16,141548.4,0,0,141548.4
Nigeria,Niger State,Southern,1871189,2,1478239.31,355525.91,37423.78,0,0,37423.78
Nigeria,Niger State,Eastern,2057135,2,1563422.6,431998.35,61714.05,0,0,61714.05
Nigeria,Niger State,Northern,1786664,2,1375731.28,357332.8,53599.92,0,0,53599.92
Nigeria,Plateau,Northern Zone,1753160,2,1332401.6,368163.6,52594.8,0,0,52594.8
Nigeria,Plateau,Central Zone,1206279,1,989148.78,193004.64,24125.58,0,0,24125.58
Nigeria,Plateau,Southern Zone,1187003,1,961472.43,201790.51,23740.06,0,0,23740.06
Nigeria,Sokoto,Eastern,1615197,1,1308309.57,209975.61,96911.82,0,0,96911.82
Nigeria,Sokoto,Central,2068906,1,1758570.1,227579.66,82756.24,0,0,82756.24
Nigeria,Sokoto,Southern,1534526,1,1335037.62,153452.6,46035.78,0,0,46035.78
Nigeria,Taraba,Central,1182818,1,1017223.48,141938.16,23656.36,0,0,23656.36
Nigeria,Taraba,North,1011858,1,880316.46,111304.38,20237.16,0,0,20237.16
Nigeria,Taraba,South,948039,1,805833.15,123245.07,18960.78,0,0,18960.78
Nigeria,Yobe,Bursari,153930.179154019,3,46179.0537462058,69268.5806193087,33864.6394138842,4617.90537462058,0,38482.5447885048
Nigeria,Yobe,Damaturu,124152.439317307,3,33521.158615673,50902.500120096,32279.6342224999,7449.14635903844,0,39728.7805815384
Nigeria,Yobe,Geidam,221880.132051899,3,51032.4303719369,102064.860743874,51032.4303719369,17750.4105641519,0,68782.8409360888
Nigeria,Yobe,Gujba,183501.97157168,4,29360.3154514689,67895.7294815218,47710.5126086369,36700.3943143361,1835.0197157168,86245.9266386898
Nigeria,Yobe,Gulani,146011.077711892,4,29202.2155423785,58404.4310847569,35042.6586508541,27742.1047652595,1460.11077711892,64244.8741932326
Nigeria,Yobe,Tarmuwa,108903.866714993,3,53362.8946903466,32671.1600144979,19602.6960086987,3267.11600144979,0,22869.8120101485
Nigeria,Yobe,Yunusari,177483,3,67443.54,60344.22,40821.09,8874.15,0,49695.24
Nigeria,Yobe,Bade,197176.315957142,3,84785.8158615709,70983.473744571,33519.9737127141,7887.05263828567,0,41407.0263509997
Nigeria,Yobe,Jakusko,323144.195879368,3,116331.910516573,129257.678351747,61397.39721708,16157.2097939684,0,77554.6070110484
Nigeria,Yobe,Karasuwa,150922.782596375,3,43767.6069529488,64896.7965164413,34712.2399971663,7546.13912981875,0,42258.379126985
Nigeria,Yobe,Machina,86901.3472468248,2,51271.7948756266,26939.4176465157,7821.12125221423,869.013472468248,0,8690.13472468248
Nigeria,Yobe,Yusufari,156697.773922358,3,45442.3544374838,67380.0427866139,32906.5325236952,10968.8441745651,0,43875.3766982602
Nigeria,Yobe,Nangere,123883.014954029,3,39642.5647852892,49553.2059816115,29731.9235889669,4955.32059816115,0,34687.2441871281
Nigeria,Yobe,Fune,424251.683244408,3,101820.403978658,190913.257459984,110305.437643546,21212.5841622204,0,131518.021805767
Nigeria,Yobe,Fika,193103.917335228,3,69517.4102406822,77241.5669340914,42482.8618137503,3862.07834670457,0,46344.9401604548
Nigeria,Yobe,Nguru,212481.312509881,3,57369.9543776678,104115.843129842,44621.075627075,6374.43937529642,0,50995.5150023714
Nigeria,Yobe,Potiskum,290408.430441634,2,119067.45648107,130683.793698735,40657.1802618288,0,0,40657.1802618288
Nigeria,Zamfara,Nothen Zone,1262432,2,757459.2,378729.6,126243.2,0,0,126243.2
Nigeria,Zamfara,Central Zone,1701729,2,918933.66,680691.6,102103.74,0,0,102103.74
Nigeria,Zamfara,Western Zone,1662555,1,1346669.55,249383.25,66502.2,0,0,66502.2
