adm0_name,adm1_name,adm2_name,population,phase_class,phase1,phase2,phase3,phase4,phase5,phase35,foodconsumption_phase,livelihoods_phase,nutrition_phase,mortality_phase,FCG_Poor,FCG_Borderline,FCG_Acceptable,FCG_finalphase,HDDS_Phase1,HDDS_Phase2,HDDS_Phase3,HDDS_Phase4,HDDS_Phase5,HDDS_finalphase,HHS_Phase1,HHS_Phase2,HHS_Phase3,HHS_Phase4,HHS_Phase5,HHS_finalphase,LhHCSCat_NoStrategies,LhHCSCat_StressStrategies,LhHCSCat_CrisisStategies,LhHCSCat_EmergencyStrategies,LhHCSCat_finalphase,rCSI_Phase1,rCSI_Phase2,rCSI_Phase3,rCSI_finalphase
Guinea,Boke,Boffa,268251,2,201188.25,45602.67,21460.08,0,0,21460.08,2,2,NA,NA,7.2,46.1,46.7,2,NA,NA,NA,NA,NA,NA,26.9,13.8,40.7,10.8,7.8,3,16.8,16.8,43.7,22.8,4,28.1,35.3,36.5,3
Guinea,Boke,Boke,567873,1,488370.78,68144.76,11357.46,0,0,11357.46,1,2,NA,NA,7.2,46.1,46.7,2,NA,NA,NA,NA,NA,NA,26.9,13.8,40.7,10.8,7.8,3,16.8,16.8,43.7,22.8,4,28.1,35.3,36.5,3
Guinea,Boke,Fria,122055,2,93982.35,19528.8,8543.85,0,0,8543.85,2,2,NA,NA,7.2,46.1,46.7,2,NA,NA,NA,NA,NA,NA,26.9,13.8,40.7,10.8,7.8,3,16.8,16.8,43.7,22.8,4,28.1,35.3,36.5,3
Guinea,Boke,Gaoual,244421,2,188204.17,36663.15,19553.68,0,0,19553.68,2,2,NA,NA,7.2,46.1,46.7,2,NA,NA,NA,NA,NA,NA,26.9,13.8,40.7,10.8,7.8,3,16.8,16.8,43.7,22.8,4,28.1,35.3,36.5,3
Guinea,Boke,Koundara,163982,2,118067.04,36076.04,9838.92,0,0,9838.92,2,2,NA,NA,7.2,46.1,46.7,2,NA,NA,NA,NA,NA,NA,26.9,13.8,40.7,10.8,7.8,3,16.8,16.8,43.7,22.8,4,28.1,35.3,36.5,3
Guinea,Conakry,Conakry,0,0,0,0,0,0,0,0,NA,NA,NA,NA,NA,NA,NA,NA,NA,NA,NA,NA,NA,NA,NA,NA,NA,NA,NA,NA,NA,NA,NA,NA,NA,NA,NA,NA,NA
Guinea,Faranah,Dabola,228700,2,144081,61749,22870,0,0,22870,2,2,NA,NA,9.4,45.3,45.3,2,NA,NA,NA,NA,NA,NA,33.6,10.2,35.2,10.2,10.9,4,20.3,25,38.3,16.4,3,32,25,43,3
Guinea,Faranah,Dinguiraye,247975,1,225657.25,19838,2479.75,0,0,2479.75,1,2,NA,NA,9.4,45.3,45.3,2,NA,NA,NA,NA,NA,NA,33.6,10.2,35.2,10.2,10.9,4,20.3,25,38.3,16.4,3,32,25,43,3
Guinea,Faranah,Faranah,353720,1,311273.6,35372,7074.4,0,0,7074.4,1,2,NA,NA,9.4,45.3,45.3,2,NA,NA,NA,NA,NA,NA,33.6,10.2,35.2,10.2,10.9,4,20.3,25,38.3,16.4,3,32,25,43,3
Guinea,Faranah,Kissidougou,357651,1,296850.33,50071.14,10729.53,0,0,10729.53,1,1,NA,NA,9.4,45.3,45.3,2,NA,NA,NA,NA,NA,NA,33.6,10.2,35.2,10.2,10.9,4,20.3,25,38.3,16.4,3,32,25,43,3
Guinea,Kankan,Kankan,595403,1,523954.64,65494.33,5954.03,0,0,5954.03,1,2,NA,NA,2.8,46.5,50.7,1,NA,NA,NA,NA,NA,NA,45.2,9.2,32.7,6,6.9,3,23.5,22.1,30.4,24,4,31.8,26.3,41.9,3
Guinea,Kankan,Kerouane,262045,1,225358.7,31445.4,5240.9,0,0,5240.9,1,2,NA,NA,2.8,46.5,50.7,1,NA,NA,NA,NA,NA,NA,45.2,9.2,32.7,6,6.9,3,23.5,22.1,30.4,24,4,31.8,26.3,41.9,3
Guinea,Kankan,Kouroussa,338892,2,240613.32,64389.48,33889.2,0,0,33889.2,2,3,NA,NA,2.8,46.5,50.7,1,NA,NA,NA,NA,NA,NA,45.2,9.2,32.7,6,6.9,3,23.5,22.1,30.4,24,4,31.8,26.3,41.9,3
Guinea,Kankan,Mandiana,424173,1,369030.51,46659.03,8483.46,0,0,8483.46,1,2,NA,NA,2.8,46.5,50.7,1,NA,NA,NA,NA,NA,NA,45.2,9.2,32.7,6,6.9,3,23.5,22.1,30.4,24,4,31.8,26.3,41.9,3
Guinea,Kankan,Siguiri,855494,1,692950.14,111214.22,51329.64,0,0,51329.64,1,2,NA,NA,2.8,46.5,50.7,1,NA,NA,NA,NA,NA,NA,45.2,9.2,32.7,6,6.9,3,23.5,22.1,30.4,24,4,31.8,26.3,41.9,3
Guinea,Kindia,Coyah,332640,2,252806.4,59875.2,19958.4,0,0,19958.4,2,2,NA,NA,4.4,48,47.5,1,NA,NA,NA,NA,NA,NA,30.4,14.2,37.7,8.3,9.3,3,12.7,30.4,40.2,16.7,3,27.5,33.3,39.2,3
Guinea,Kindia,Dubreka,416583,1,358261.38,41658.3,16663.32,0,0,16663.32,1,2,NA,NA,4.4,48,47.5,1,NA,NA,NA,NA,NA,NA,30.4,14.2,37.7,8.3,9.3,3,12.7,30.4,40.2,16.7,3,27.5,33.3,39.2,3
Guinea,Kindia,Forecariah,306449,1,275804.1,21451.43,9193.47,0,0,9193.47,1,2,NA,NA,4.4,48,47.5,1,NA,NA,NA,NA,NA,NA,30.4,14.2,37.7,8.3,9.3,3,12.7,30.4,40.2,16.7,3,27.5,33.3,39.2,3
Guinea,Kindia,Kindia,554224,1,460005.92,72049.12,22168.96,0,0,22168.96,1,2,NA,NA,4.4,48,47.5,1,NA,NA,NA,NA,NA,NA,30.4,14.2,37.7,8.3,9.3,3,12.7,30.4,40.2,16.7,3,27.5,33.3,39.2,3
Guinea,Kindia,Telimele,358971,1,294356.22,50255.94,14358.84,0,0,14358.84,1,2,NA,NA,4.4,48,47.5,1,NA,NA,NA,NA,NA,NA,30.4,14.2,37.7,8.3,9.3,3,12.7,30.4,40.2,16.7,3,27.5,33.3,39.2,3
Guinea,Labe,Koubia,125967,1,105812.28,15116.04,5038.68,0,0,5038.68,1,1,NA,NA,4.1,52.6,43.4,1,NA,NA,NA,NA,NA,NA,21.9,7.7,49,17.9,3.6,4,11.7,13.8,56.1,18.4,3,20.4,34.7,44.9,3
Guinea,Labe,Labe,401215,2,260789.75,100303.75,40121.5,0,0,40121.5,2,2,NA,NA,4.1,52.6,43.4,1,NA,NA,NA,NA,NA,NA,21.9,7.7,49,17.9,3.6,4,11.7,13.8,56.1,18.4,3,20.4,34.7,44.9,3
Guinea,Labe,Lelouma,205661,1,170698.63,28792.54,6169.83,0,0,6169.83,1,2,NA,NA,4.1,52.6,43.4,1,NA,NA,NA,NA,NA,NA,21.9,7.7,49,17.9,3.6,4,11.7,13.8,56.1,18.4,3,20.4,34.7,44.9,3
Guinea,Labe,Mali,363094,2,181547,127082.9,54464.1,0,0,54464.1,2,3,NA,NA,4.1,52.6,43.4,1,NA,NA,NA,NA,NA,NA,21.9,7.7,49,17.9,3.6,4,11.7,13.8,56.1,18.4,3,20.4,34.7,44.9,3
Guinea,Labe,Tougue,156920,2,112982.4,31384,12553.6,0,0,12553.6,2,2,NA,NA,4.1,52.6,43.4,1,NA,NA,NA,NA,NA,NA,21.9,7.7,49,17.9,3.6,4,11.7,13.8,56.1,18.4,3,20.4,34.7,44.9,3
Guinea,Mamou,Dalaba,168683,2,123138.59,30362.94,15181.47,0,0,15181.47,2,2,NA,NA,8.7,36.4,54.9,2,NA,NA,NA,NA,NA,NA,33.2,8.7,43.5,10.9,3.8,3,20.1,17.9,43.5,18.5,3,31.5,32.6,35.9,3
Guinea,Mamou,Mamou,402530,2,269695.1,84531.3,48303.6,0,0,48303.6,2,2,NA,NA,8.7,36.4,54.9,2,NA,NA,NA,NA,NA,NA,33.2,8.7,43.5,10.9,3.8,3,20.1,17.9,43.5,18.5,3,31.5,32.6,35.9,3
Guinea,Mamou,Pita,350937,2,256184.01,87734.25,7018.74,0,0,7018.74,2,2,NA,NA,8.7,36.4,54.9,2,NA,NA,NA,NA,NA,NA,33.2,8.7,43.5,10.9,3.8,3,20.1,17.9,43.5,18.5,3,31.5,32.6,35.9,3
Guinea,Nzerekore,Beyla,411727,1,345850.68,57641.78,8234.54,0,0,8234.54,1,2,NA,NA,5.1,55.9,39,2,NA,NA,NA,NA,NA,NA,26.6,10.7,43.5,6.8,12.4,3,14.1,23.7,40.1,22,4,21.5,37.9,40.7,3
Guinea,Nzerekore,Gueckedou,366695,1,319024.65,36669.5,11000.85,0,0,11000.85,1,2,NA,NA,5.1,55.9,39,2,NA,NA,NA,NA,NA,NA,26.6,10.7,43.5,6.8,12.4,3,14.1,23.7,40.1,22,4,21.5,37.9,40.7,3
Guinea,Nzerekore,Lola,216619,1,192790.91,21661.9,2166.19,0,0,2166.19,1,1,NA,NA,5.1,55.9,39,2,NA,NA,NA,NA,NA,NA,26.6,10.7,43.5,6.8,12.4,3,14.1,23.7,40.1,22,4,21.5,37.9,40.7,3
Guinea,Nzerekore,Macenta,351556,2,221480.28,94920.12,35155.6,0,0,35155.6,2,3,NA,NA,5.1,55.9,39,2,NA,NA,NA,NA,NA,NA,26.6,10.7,43.5,6.8,12.4,3,14.1,23.7,40.1,22,4,21.5,37.9,40.7,3
Guinea,Nzerekore,Nzerekore,500513,2,375384.75,110112.86,15015.39,0,0,15015.39,2,3,NA,NA,5.1,55.9,39,2,NA,NA,NA,NA,NA,NA,26.6,10.7,43.5,6.8,12.4,3,14.1,23.7,40.1,22,4,21.5,37.9,40.7,3
Guinea,Nzerekore,Yomou,144312,1,122665.2,18760.56,2886.24,0,0,2886.24,1,3,NA,NA,5.1,55.9,39,2,NA,NA,NA,NA,NA,NA,26.6,10.7,43.5,6.8,12.4,3,14.1,23.7,40.1,22,4,21.5,37.9,40.7,3
