adm0_name,adm1_name,population,phase_class,phase1,phase2,phase3,phase4,phase5,phase35,foodconsumption_phase,livelihoods_phase,nutrition_phase,mortality_phase,FCG_Poor,FCG_Borderline,FCG_Acceptable,FCG_finalphase,HDDS_Phase1,HDDS_Phase2,HDDS_Phase3,HDDS_Phase4,HDDS_Phase5,HDDS_finalphase,HHS_Phase1,HHS_Phase2,HHS_Phase3,HHS_Phase4,HHS_Phase5,HHS_finalphase,LhHCSCat_NoStrategies,LhHCSCat_StressStrategies,LhHCSCat_CrisisStategies,LhHCSCat_EmergencyStrategies,LhHCSCat_finalphase,rCSI_Phase1,rCSI_Phase2,rCSI_Phase3,rCSI_finalphase
Gambia,Banjul,26413,2,20338.01,5546.73,528.26,0,0,528.26,1,2,2,NA,1.8,2.8,95.4,1,54.9,26.6,11.4,5.6,1.5,2,NA,NA,NA,NA,NA,NA,75.9,18,4.3,1.8,2,79.4,16.6,4,2
Gambia,Basse,209136,2,150577.92,41827.2,16730.88,0,0,16730.88,1,2,2,NA,1.9,9.3,88.8,1,29.8,33.9,26.3,9.6,0.4,3,NA,NA,NA,NA,NA,NA,50.2,22.7,14.4,12.8,3,51.9,39.1,9,2
Gambia,Brikama,1143334,2,891800.52,217233.46,34300.02,0,0,34300.02,1,2,2,NA,4.3,12.9,82.8,1,41.6,26.5,21.6,7.9,2.5,3,NA,NA,NA,NA,NA,NA,52.4,28,6.1,13.6,2,63.1,28.2,8.7,2
Gambia,Janjanbureh,155579,2,110461.09,37338.96,7778.95,0,0,7778.95,2,3,2,NA,2.1,22.8,75.2,1,39.1,31,22.3,7.1,0.5,3,NA,NA,NA,NA,NA,NA,13,30,16.3,40.7,4,32.5,42.2,25.3,3
Gambia,Kanifing,467948,1,388396.84,70192.2,9358.96,0,0,9358.96,1,1,2,NA,0.3,2.4,97.4,1,57.2,25.2,14,3.5,0.1,2,NA,NA,NA,NA,NA,NA,57.5,22.6,17.2,2.7,2,72.4,22.2,5.4,2
Gambia,Kerewan,209919,2,153240.87,50380.56,6297.57,0,0,6297.57,1,3,2,NA,0.5,5.8,93.7,1,61.6,25.7,10.5,1.6,0.6,2,NA,NA,NA,NA,NA,NA,37,31.8,14.8,16.3,3,53.7,37.2,9.2,2
Gambia,Kuntaur,138256,2,82953.6,41476.8,13825.6,0,0,13825.6,1,3,3,NA,2.5,17.8,79.7,1,33.2,28.3,24.8,8.8,4.9,3,NA,NA,NA,NA,NA,NA,24.2,34.3,15.8,25.8,4,40.4,40.7,18.9,2
Gambia,Mansa Konko,105254,3,50521.92,31576.2,23155.88,0,0,23155.88,2,3,3,NA,0.6,10.6,88.9,1,36.7,32.5,22.3,8,0.5,3,NA,NA,NA,NA,NA,NA,34.5,24.8,8.5,32.2,4,51.7,36.2,12.1,2
