adm0_name,adm1_name,adm2_name,population,phase_class,phase1,phase2,phase3,phase4,phase5,phase35,foodconsumption_phase,livelihoods_phase,nutrition_phase,mortality_phase,FCG_Poor,FCG_Borderline,FCG_Acceptable,FCG_finalphase,HDDS_Phase1,HDDS_Phase2,HDDS_Phase3,HDDS_Phase4,HDDS_Phase5,HDDS_finalphase,HHS_Phase1,HHS_Phase2,HHS_Phase3,HHS_Phase4,HHS_Phase5,HHS_finalphase,LhHCSCat_NoStrategies,LhHCSCat_StressStrategies,LhHCSCat_CrisisStategies,LhHCSCat_EmergencyStrategies,LhHCSCat_finalphase,rCSI_Phase1,rCSI_Phase2,rCSI_Phase3,rCSI_finalphase
Senegal,Dakar,Dakar,1438725,2,1093431,330907,14387,0,0,14387,2,2,NA,NA,0,12.6,87.4,1,66.7,10.9,18.8,3.7,0,3,NA,NA,NA,NA,NA,NA,38,62,0,0,2,25.8,70.5,3.7,2
Senegal,Dakar,Guediawaye,413844,1,360044,49661,4138,0,0,4138,1,2,NA,NA,0,3.1,96.9,1,90.3,6.4,2.4,0.9,0,1,NA,NA,NA,NA,NA,NA,16.3,70.4,11.9,1.4,2,49.4,50.6,0,2
Senegal,Dakar,Pikine,1469782,1,1264013,191072,14698,0,0,14698,1,2,NA,NA,2.9,0,97.1,1,100,0,0,0,0,1,NA,NA,NA,NA,NA,NA,19,67.5,12.3,1.1,2,37.1,61.4,1.4,2
Senegal,Dakar,Rufisque,616006,1,548245,61601,6160,0,0,6160,1,2,NA,NA,0,3.2,96.8,1,97.9,1.1,1.1,0,0,1,NA,NA,NA,NA,NA,NA,39.9,57.3,2.7,0,2,63.2,35.8,1.1,2
Senegal,Diourbel,Bambey,383799,1,314715,57570,11514,0,0,11514,1,2,NA,NA,2,46.4,51.7,1,76.1,11.8,6.9,2.9,2.3,2,NA,NA,NA,NA,NA,NA,37.3,49,13.8,0,2,33.9,58.1,8,2
Senegal,Diourbel,Diourbel,343736,1,285301,48123,10312,0,0,10312,1,2,NA,NA,0,8.2,91.8,1,91.8,7.3,0.9,0,0,1,NA,NA,NA,NA,NA,NA,46.7,46.1,6.3,0.9,2,53.5,44.7,1.8,2
Senegal,Diourbel,Mbacke,1191556,1,1036654,142987,11916,0,0,11916,1,2,NA,NA,0,15.3,84.7,1,95.8,2.5,1.7,0,0,1,NA,NA,NA,NA,NA,NA,63.8,36.2,0,0,2,30.5,66.1,3.4,2
Senegal,Fatick,Fatick,442871,1,385298,53145,4429,0,0,4429,1,1,NA,NA,0.9,7.8,91.3,1,96.5,2.6,0.9,0,0,1,NA,NA,NA,NA,NA,NA,58,42,0,0,2,46.1,53.9,0,2
Senegal,Fatick,Foundiougne,364800,1,331968,29184,3648,0,0,3648,1,1,NA,NA,0,2.1,97.9,1,95.5,3.5,1.1,0,0,1,NA,NA,NA,NA,NA,NA,40.8,50.9,7.2,1,2,44.7,55.3,0,2
Senegal,Fatick,Gossas,124955,1,103713,16244,4998,0,0,4998,1,2,NA,NA,0,1.5,98.5,1,93.5,5.8,0.7,0,0,1,NA,NA,NA,NA,NA,NA,23.8,55.9,16.1,4.2,3,39.5,59,1.5,2
Senegal,Kaffrine,Birkelane,134810,1,114589,13481,6741,0,0,6741,1,1,NA,NA,2,9,89,1,68,17,7.9,4.1,3,2,NA,NA,NA,NA,NA,NA,24.2,74.1,1.7,0,2,54.3,44.7,1,2
Senegal,Kaffrine,Kaffrine,276602,1,232346,41490,2766,0,0,2766,1,1,NA,NA,4.8,16.9,78.4,1,58.8,20.4,7.3,7.7,5.7,3,NA,NA,NA,NA,NA,NA,30.8,55.3,12,2,2,52.4,40.7,6.9,2
Senegal,Kaffrine,Koungheul,217682,1,182853,32652,2177,0,0,2177,1,1,NA,NA,4.9,25,70.1,1,65.8,21.1,7,5.1,1,2,NA,NA,NA,NA,NA,NA,40.7,49.2,8.1,2,2,45.7,52.3,2,2
Senegal,Kaffrine,Malem Hodar,126080,1,104646,18912,2522,0,0,2522,1,1,NA,NA,2,11,86.9,1,80,8,7.1,5,0,2,NA,NA,NA,NA,NA,NA,20,35.4,39.9,4.7,3,56.6,42.4,1,2
Senegal,Kaolack,Guinguineo,147295,1,125201,20621,1473,0,0,1473,1,2,NA,NA,0,2.1,97.9,1,80,11.7,8.3,0,0,2,NA,NA,NA,NA,NA,NA,50.2,38.5,0,11.3,2,41.5,58.5,0,2
Senegal,Kaolack,Kaolack,625022,1,525018,68752,31251,0,0,31251,1,2,NA,NA,1,5.9,93.1,1,98,1,0,1,0,1,NA,NA,NA,NA,NA,NA,17.7,60.9,17.4,3.9,3,58.6,39.4,2,2
Senegal,Kaolack,Nioro Du Rip,456430,1,397094,59336,0,0,0,0,1,1,NA,NA,0,5.7,94.3,1,84.4,10.7,3.8,1,0,1,NA,NA,NA,NA,NA,NA,6,91.9,2,0,2,43,57,0,2
Senegal,Kedougou,Kedougou,102196,2,71537,25549,4088,1022,0,5110,2,2,NA,NA,5.1,17.1,77.7,2,66.5,13.7,13.7,4.6,1.4,2,NA,NA,NA,NA,NA,NA,20.3,66.1,12.7,0.8,2,31.7,64.6,3.7,2
Senegal,Kedougou,Salemata,28777,2,17266,10072,1439,0,0,1439,2,2,NA,NA,11.5,29,59.4,3,50.5,18,20.6,7.8,3.1,3,NA,NA,NA,NA,NA,NA,37.2,37.7,20.2,5,3,21.6,74.6,3.8,2
Senegal,Kedougou,Saraya,66017,2,45552,16504,3961,0,0,3961,2,2,NA,NA,8.9,24,67.1,2,60.4,25.8,9.4,3.7,0.7,2,NA,NA,NA,NA,NA,NA,61,34.6,4.4,0,2,28.9,65.3,5.8,2
Senegal,Kolda,Kolda,315018,1,258315,53553,3150,0,0,3150,1,2,NA,NA,1.5,19.5,79,1,89.8,9,1.2,0,0,1,NA,NA,NA,NA,NA,NA,49.1,40.2,9.8,0.8,2,34.8,65.2,0,2
Senegal,Kolda,Medina Yoro Foulah,176832,1,143234,30061,3537,0,0,3537,1,2,NA,NA,9.6,26.9,63.5,2,86.7,10.7,2.6,0,0,1,NA,NA,NA,NA,NA,NA,60,37.9,2.1,0,2,28.9,62.9,8.1,2
Senegal,Kolda,Velingara,319425,1,281094,31943,6389,0,0,6389,1,2,NA,NA,1,17.9,81.1,1,96.8,3.2,0,0,0,1,NA,NA,NA,NA,NA,NA,NA,NA,NA,NA,NA,24.9,73.2,2,2
Senegal,Louga,Kebemer,323417,2,219924,90557,12937,0,0,12937,2,2,NA,NA,7,30.4,62.6,2,71.7,13.7,7.8,4.9,1.8,2,NA,NA,NA,NA,NA,NA,23.1,67.1,8.7,1.1,2,23.2,72.4,4.4,2
Senegal,Louga,Linguere,301965,1,247611,51334,3020,0,0,3020,1,2,NA,NA,9.6,13,77.4,2,74.1,13,4.3,7.8,0.7,2,NA,NA,NA,NA,NA,NA,36.8,39.9,22.5,0.8,3,40.7,54.3,4.9,2
Senegal,Louga,Louga,465886,1,382027,79201,4659,0,0,4659,1,2,NA,NA,6.7,8.8,84.6,2,82,14.6,3.3,0,0,1,NA,NA,NA,NA,NA,NA,72.9,25.1,2,0,2,47.8,47.8,4.4,2
Senegal,Matam,Kanel,322609,1,270992,32261,19357,0,0,19357,1,2,NA,NA,15.5,4.4,80.1,2,90.9,2.8,5.3,1.1,0,1,NA,NA,NA,NA,NA,NA,23,16.7,60.3,0,3,43.5,41,15.5,2
Senegal,Matam,Matam,368601,1,305939,55290,7372,0,0,7372,1,2,NA,NA,2,3.1,94.9,1,80.1,10,9.5,0.5,0,2,NA,NA,NA,NA,NA,NA,18.3,48.1,18,15.6,3,66.7,31.7,1.6,2
Senegal,Matam,Ranerou,69378,2,31914,27751,6938,2775,0,9713,2,2,NA,NA,18.4,21,60.6,3,63.2,20.7,8.7,7.3,0,2,NA,NA,NA,NA,NA,NA,45.4,25.3,29.1,0.2,3,44.9,25.7,29.4,3
Senegal,Saint Louis,Dagana,297972,1,253276,41716,2980,0,0,2980,1,2,NA,NA,6.9,19.8,73.3,2,86.4,11,2.5,0,0,1,NA,NA,NA,NA,NA,NA,40.3,11.1,48.1,0.5,3,41.4,47.5,11,2
Senegal,Saint Louis,Podor,457079,2,347380,91416,18283,0,0,18283,2,2,NA,NA,8.2,21.7,70.1,2,85.5,7.3,6.5,0.7,0,1,NA,NA,NA,NA,NA,NA,58.8,41.2,0,0,2,62.3,27.5,10.2,2
Senegal,Saint Louis,Saint Louis,365534,1,310704,43864,10966,0,0,10966,1,2,NA,NA,1.3,2,96.6,1,96.6,2,0,1.3,0,1,NA,NA,NA,NA,NA,NA,27.7,60.7,11.6,0,2,40.3,57.7,2,2
Senegal,Sedhiou,Bounkiling,190227,1,157888,24730,7609,0,0,7609,1,1,NA,NA,0,13.7,86.3,1,80.4,15.7,3.9,0,0,1,NA,NA,NA,NA,NA,NA,24.1,73.1,2.8,0,2,61.7,38.3,0,2
Senegal,Sedhiou,Goudomp,203984,1,169307,32637,2040,0,0,2040,1,2,NA,NA,1,8.8,90.2,1,97.1,2.9,0,0,0,1,NA,NA,NA,NA,NA,NA,27.7,42.2,30.1,0,3,79.4,20.6,0,2
Senegal,Sedhiou,Sedhiou,197758,1,177982,19776,0,0,0,0,1,2,NA,NA,0,8.1,91.9,1,93.7,2,4.2,0,0,1,NA,NA,NA,NA,NA,NA,NA,NA,NA,NA,NA,58.2,41.8,0,2
Senegal,Tambacounda,Bakel,184263,1,158466,18426,7371,0,0,7371,1,2,NA,NA,2.5,5.7,91.8,1,79.6,17.4,2.2,0.8,0,2,NA,NA,NA,NA,NA,NA,76.6,19.6,3.9,NA,2,62.6,36.3,1.1,2
Senegal,Tambacounda,Goudiry,152391,2,117341,33526,1524,0,0,1524,1,2,NA,NA,0.8,11.8,87.4,1,74.9,7,16.4,1.7,0,2,NA,NA,NA,NA,NA,NA,38.8,43.8,16.4,1,2,55.5,42.4,2.1,2
Senegal,Tambacounda,Koumpentoum,170418,1,148264,17042,5113,0,0,5113,1,1,NA,NA,2.3,10.8,86.9,1,70.1,23.2,5.5,1.2,0,2,NA,NA,NA,NA,NA,NA,43.7,53.9,2.4,0,2,38.1,57.3,4.6,2
Senegal,Tambacounda,Tambacounda,396960,1,349325,39696,7939,0,0,7939,1,2,NA,NA,2.1,3.1,94.8,1,83.9,10.4,4.7,1,0,1,NA,NA,NA,NA,NA,NA,NA,NA,NA,NA,NA,56.9,41.2,1.9,2
Senegal,Thies,Mbour,830495,1,739141,83050,8305,0,0,8305,1,1,NA,NA,0,7.4,92.6,1,91.8,4.9,3.3,0,0,1,NA,NA,NA,NA,NA,NA,84.3,15.7,NA,NA,1,57.4,41,1.6,2
Senegal,Thies,Thies,829174,1,729673,91209,8292,0,0,8292,1,2,NA,NA,0,0.9,99.1,1,95.5,2.7,1.8,0,0,1,NA,NA,NA,NA,NA,NA,NA,NA,NA,NA,NA,49.9,49.2,0.9,2
Senegal,Thies,Tivaouane,356499,1,324414,32085,0,0,0,0,1,2,NA,NA,0.8,4.2,95,1,80.8,15,3.3,0,0.9,1,NA,NA,NA,NA,NA,NA,NA,NA,NA,NA,NA,24.1,73.4,2.5,2
Senegal,Ziguinchor,Bignona,324943,1,289199,32494,3249,0,0,3249,1,2,NA,NA,0,12.5,87.5,1,86.4,13.5,0.1,0,0,1,NA,NA,NA,NA,NA,NA,25.2,59.1,15.7,0,2,34,65.9,0.1,2
Senegal,Ziguinchor,Oussouye,62185,1,55967,5597,622,0,0,622,1,2,NA,NA,0,10.6,89.4,1,94.7,3.2,2.1,0,0,1,NA,NA,NA,NA,NA,NA,6.5,74.2,15.9,3.4,2,70.1,29.9,0,2
Senegal,Ziguinchor,Ziguinchor,561428,1,505285,56143,0,0,0,0,1,2,NA,NA,0,0.3,99.7,1,99.4,0.4,0.2,0,0,1,NA,NA,NA,NA,NA,NA,NA,NA,NA,NA,NA,21,79,0,2
