adm0_name,adm1_name,adm2_name,population,phase_class,phase1,phase2,phase3,phase4,phase5,phase35
Sierra Leone,Eastern Province,Kailahun,560606,1,482121.16,78484.84,0,0,0,0
Sierra Leone,Eastern Province,Kenema,649549,1,571603.12,77945.88,0,0,0,0
Sierra Leone,Eastern Province,Kono,538654,2,425536.66,107730.8,5386.54,0,0,5386.54
Sierra Leone,Southern Province,Bo,612298,1,508207.34,97967.68,6122.98,0,0,6122.98
Sierra Leone,Southern Province,Bonthe,213837,1,177484.71,36352.29,0,0,0,0
Sierra Leone,Southern Province,Moyamba,339304,2,257871.04,78039.92,3393.04,0,0,3393.04
Sierra Leone,Southern Province,Pujehun,368990,2,291502.1,73798,3689.9,0,0,3689.9
Sierra Leone,Northern Province,Bombali,610432,2,445615.36,152608,12208.64,0,0,12208.64
Sierra Leone,Northern Province,Koinadugu,411996,2,329596.8,78279.24,4119.96,0,0,4119.96
Sierra Leone,Northern Province,Port Loko,655390,1,543973.7,111416.3,0,0,0,0
Sierra Leone,Northern Province,Tonkolili,565991,2,401853.61,152817.57,11319.82,0,0,11319.82
Sierra Leone,Northern Province,Kambia,357670,1,307596.2,50073.8,0,0,0,0
Sierra Leone,Western Area,Western Rural,471753,2,367967.34,99068.13,4717.53,0,0,4717.53
