adm0_name,adm1_name,adm2_name,population,phase_class,phase1,phase2,phase3,phase4,phase5,phase35,foodconsumption_phase,livelihoods_phase,nutrition_phase,mortality_phase
Cameroon,Adamaoua,Djerem,198252,2,138776.3616,49562.9863,9912.59726,0,0,9912.59726,2,3,1,NA
Cameroon,Adamaoua,Faro-Et-Deo,131245,2,91871.53301,34123.71226,5249.801886,0,0,5249.801886,2,3,1,NA
Cameroon,Adamaoua,Mayo-Banyo,296813,2,198864.7511,77171.39593,20776.91429,0,0,20776.91429,2,2,1,NA
Cameroon,Adamaoua,Mbere,272385,2,166154.6081,81715.38104,24514.61431,0,0,24514.61431,2,2,1,NA
Cameroon,Adamaoua,Vina,504385,2,358113.4487,110964.7306,35306.95974,0,0,35306.95974,2,3,1,NA
Cameroon,Centre,Haute-Sanaga,151036,1,132911.4403,18124.28731,0,0,0,0,1,1,NA,NA
Cameroon,Centre,Lekie,430522,1,365943.9213,64578.33905,0,0,0,0,1,1,NA,NA
Cameroon,Centre,Mbam-Et-Inoubou,284346,1,253068.2691,31278.10068,0,0,0,0,1,1,NA,NA
Cameroon,Centre,Mbam-Et-Kim,158800,1,133392.2767,25408.0527,0,0,0,0,1,1,NA,NA
Cameroon,Centre,Mefou-Et-Afamba,189675,1,153636.8466,32244.77027,3793.502385,0,0,3793.502385,1,1,NA,NA
Cameroon,Centre,Mefou-Et-Akono,88824,1,78165.20318,10658.89134,0,0,0,0,1,1,NA,NA
Cameroon,Centre,Mfoundi,2832335,1,2407484.995,396526.9404,28323.35288,0,0,28323.35288,1,1,NA,NA
Cameroon,Centre,Nyong-Et-Kelle,195385,1,158262.105,35169.35668,1953.853149,0,0,1953.853149,1,2,NA,NA
Cameroon,Centre,Nyong-Et-Mfoumou,157289,1,138414.5397,18874.70996,0,0,0,0,1,2,NA,NA
Cameroon,Centre,Nyong-Et-Soo,174527,1,155328.7592,19197.93653,0,0,0,0,2,1,NA,NA
Cameroon,Est,Boumba-Et-Ngoko,173615,1,140627.85,31250.63334,1736.146297,0,0,1736.146297,1,1,1,NA
Cameroon,Est,Haut-Nyong,295773,1,257322.3197,35492.73375,2957.727813,0,0,2957.727813,1,1,1,NA
Cameroon,Est,Kadey,277078,1,224433.5345,47103.3344,5541.568753,0,0,5541.568753,1,1,1,NA
Cameroon,Est,Lom-Et-Djerem,415071,1,348659.90870000003,62260.69798,4150.713199,0,0,4150.713199,1,1,1,NA
Cameroon,Extreme-Nord,Diamare,947372,2,682107.9657,236843.0437,28421.16524,0,0,28421.16524,2,2,2,NA
Cameroon,Extreme-Nord,Logone-Et-Chari,718387,3,287354.7247,201148.3073,208332.1754,21551.60435,0,229883.7798,3,3,2,NA
Cameroon,Extreme-Nord,Mayo-Danay,780437,2,405827.2051,273152.9265,85848.06262,15608.73866,0,101456.8013,3,3,2,NA
Cameroon,Extreme-Nord,Mayo-Kani,596908,2,399928.28370000003,161165.1293,35814.47317,0,0,35814.47317,2,2,2,NA
Cameroon,Extreme-Nord,Mayo-Sava,514660,3,174984.4689,185277.673,144104.8568,10293.20405,0,154398.0608,3,3,2,NA
Cameroon,Extreme-Nord,Mayo-Tsanaga,1032552,3,340742.3014,340742.3014,320091.2528,30976.57285,0,351067.8257,3,4,2,NA
Cameroon,Littoral,Moungo,570780,1,462332.0082,102740.4463,5707.802571,0,0,5707.802571,1,1,NA,NA
Cameroon,Littoral,Nkam,55281,1,45330.28404,9397.741814,552.808342,0,0,552.808342,1,1,NA,NA
Cameroon,Littoral,Sanaga-Maritime,244294,1,207649.6682,36644.05909,0,0,0,0,1,1,NA,NA
Cameroon,Littoral,Wouri,2907740,1,2384347.024,494315.8463,29077.40273,0,0,29077.40273,1,1,NA,NA
Cameroon,Nord-Ouest,Donga-Mantung,406262,2,215318.9696,142191.7724,48751.46482,0,0,48751.46482,2,2,NA,NA
Cameroon,Nord-Ouest,Menchum,243817,3,90212.15067,80459.48573,63392.32209,9752.664937,0,73144.98703,3,3,NA,NA
Cameroon,Nord-Ouest,Mezam,788842,3,276094.806,299760.0751,181433.7297,31553.69212,0,212987.4218,3,3,NA,NA
Cameroon,Nord-Ouest,Momo,208741,2,112720.2548,58447.53952,35486.00614,2087.412126,0,37573.41826,3,2,NA,NA
Cameroon,Nord-Ouest,Ngo-Ketunjia,281970,3,146624.3381,70492.47023,56393.97618,8459.096427,0,64853.07261,3,3,NA,NA
Cameroon,Nord,Benoue,1428841,2,714420.3194,500094.2236,214326.0958,0,0,214326.0958,2,3,2,NA
Cameroon,Nord,Faro,116522,2,79235.00833,29130.51777,8156.544975,0,0,8156.544975,2,3,2,NA
Cameroon,Nord,Mayo-Louti,656305,2,328152.5972,249395.9738,78756.62332,0,0,78756.62332,3,2,2,NA
Cameroon,Nord,Mayo-Rey,629261,2,421605.1698,176193.2053,31463.07238,0,0,31463.07238,2,2,1,NA
Cameroon,Ouest,Bamboutos,440094,1,369679.3284,70415.11017,0,0,0,0,1,1,NA,NA
Cameroon,Ouest,Haut-Nkam,217912,2,156896.3087,47940.53878,13074.69239,0,0,13074.69239,2,1,NA,NA
Cameroon,Ouest,Hauts-Plateaux,121425,1,100782.9057,19428.03002,1214.251876,0,0,1214.251876,1,1,NA,NA
Cameroon,Ouest,Koung-Khi,97860,1,80245.58668,17614.88488,0,0,0,0,1,1,NA,NA
Cameroon,Ouest,Menoua,430092,1,352675.2869,73115.60827,4300.918133,0,0,4300.918133,1,1,NA,NA
Cameroon,Ouest,Mifi,453709,1,376578.6414,72593.47304,4537.092065,0,0,4537.092065,2,1,NA,NA
Cameroon,Ouest,Nde,142753,1,117057.776,24268.0755,1427.533853,0,0,1427.533853,1,1,NA,NA
Cameroon,Ouest,Noun,684927,1,575338.6608,109588.3163,0,0,0,0,1,1,NA,NA
Cameroon,Sud-Ouest,Kupe-Manenguba,158903,2,101697.711,42903.72182,12712.21387,1589.026734,0,14301.24061,1,2,NA,NA
Cameroon,Sud-Ouest,Lebialem,171179,3,75318.95512,54777.42191,37659.47756,3423.588869,0,41083.06643,2,3,NA,NA
Cameroon,Sud-Ouest,Manyu,272474,3,122613.5073,89916.57204,57219.63675,2724.744607,0,59944.38136,2,3,NA,NA
Cameroon,Sud-Ouest,Meme,491754,3,201619.1809,172113.9349,108185.9019,9835.081994,0,118020.9839,3,3,NA,NA
Cameroon,Sud-Ouest,Ndian,184489,3,81175.0211,55346.6053,42432.39739,5534.66053,0,47967.05792,1,3,NA,NA
Cameroon,Sud,Dja-Et-Lobo,296423,1,251959.5219,44463.44504,0,0,0,0,1,1,NA,NA
Cameroon,Sud,Mvila,270051,1,232244.1309,37807.1841,0,0,0,0,1,1,NA,NA
Cameroon,Sud,Ocean,269546,1,221027.4043,45822.75455,2695.45615,0,0,2695.45615,1,1,NA,NA
Cameroon,Sud,Vallee-Du-Ntem,119174,1,97722.3673,20259.51517,1191.736187,0,0,1191.736187,1,1,NA,NA
Cameroon,Nord-Ouest,Boyo,187962,2,105258.9225,56388.70847,26314.73062,0,0,26314.73062,3,2,NA,NA
Cameroon,Nord-Ouest,Bui,484582,3,125991.4477,203524.6464,130837.2727,24229.12457,0,155066.3972,3,3,NA,NA
Cameroon,Sud-Ouest,Fako,701978,2,456285.5673,203573.5608,42118.66775,0,0,42118.66775,2,2,NA,NA
